{
    "KPlugin": {
        "Description": "Validates XML files using xmllint",
        "Description[az]": "XML fayllarını xmllint istifadə edərək doğrulayır",
        "Description[bg]": "Валидира XML файлове с помощта на xmllint",
        "Description[ca@valencia]": "Valida els fitxers XML utilitzant «xmllint»",
        "Description[ca]": "Valida els fitxers XML usant el «xmllint»",
        "Description[cs]": "Ověřuje soubory XML pomocí xmllint",
        "Description[de]": "Überprüft XML-Dateien mit xmllint",
        "Description[el]": "Επαλήθευση XML αρχείων με το xmllint",
        "Description[en_GB]": "Validates XML files using xmllint",
        "Description[eo]": "Validigas XML-dosierojn per xmllint",
        "Description[es]": "Valida archivos XML usando xmllint",
        "Description[eu]": "XML fitxategiak balioztatzen ditu «xmllint» erabiliz",
        "Description[fi]": "Validoi XML-tiedostoja xmllintillä",
        "Description[fr]": " Valide les fichiers XML à l'aide de « xmllint »",
        "Description[gl]": "Valida ficheiros XML usando xmllint.",
        "Description[hu]": "XML-fájlok ellenőrzése az xmllint használatával",
        "Description[ia]": "Valida files XML per usar xmllint",
        "Description[ie]": "Validar files XML med xmllint",
        "Description[it]": "Convalida i file XML usando xmllint",
        "Description[ka]": "XML ფაილების გადამოწმება xmllint-ის საშუალებით",
        "Description[ko]": "xmllint로 XML 파일 검사하기",
        "Description[nl]": "Valideert XML-bestanden met behulp van xmllint",
        "Description[pl]": "Sprawdza poprawność składni XML za pomocą xmllint",
        "Description[pt]": "Valida os ficheiros XML com o 'xmllint'",
        "Description[ru]": "Проверка правильности файлов XML с помощью xmllint",
        "Description[sk]": "Overuje súbory XML pomocou xmllint",
        "Description[sl]": "Preveri datoteke XML z uporabo orodja xmllint",
        "Description[sv]": "Validerar XML-filer med XMLlint",
        "Description[tr]": "XML dosyalarını xmllint kullanarak doğrular",
        "Description[uk]": "Перевіряє файли XML за допомогою xmllint",
        "Description[vi]": "Kiểm nhận các tệp XML bằng xmllint",
        "Description[x-test]": "xxValidates XML files using xmllintxx",
        "Description[zh_CN]": "使用 xmllint 校验 XML 文件",
        "Name": "XML Validation",
        "Name[az]": "XML doğrulama",
        "Name[bg]": "Валидиране на XML",
        "Name[ca@valencia]": "Validació de l'XML",
        "Name[ca]": "Validació de l'XML",
        "Name[cs]": "Validace XML",
        "Name[de]": "XML-Überprüfung",
        "Name[el]": "Επαλήθευση XML",
        "Name[en_GB]": "XML Validation",
        "Name[eo]": "XML-Validigo",
        "Name[es]": "Validación XML",
        "Name[eu]": "XML baliozkotzea",
        "Name[fi]": "XML-validointi",
        "Name[fr]": "Validation du XML",
        "Name[gl]": "Validación de XML",
        "Name[hu]": "XML-ellenőrzés",
        "Name[ia]": "Validation XML",
        "Name[ie]": "Validation de XML",
        "Name[it]": "Validazione XML",
        "Name[ka]": "XML-ის დადასტურება",
        "Name[ko]": "XML 검사기",
        "Name[nl]": "XML-validatie",
        "Name[pl]": "Sprawdzanie XML",
        "Name[pt]": "Validação de XML",
        "Name[pt_BR]": "Validação do XML",
        "Name[ru]": "Проверка XML",
        "Name[sk]": "XML Overenie",
        "Name[sl]": "Preverjanje XML",
        "Name[sv]": "XML-validering",
        "Name[tr]": "XML Doğrulama",
        "Name[uk]": "Перевірка XML",
        "Name[vi]": "Kiểm nhận XML",
        "Name[x-test]": "xxXML Validationxx",
        "Name[zh_CN]": "XML 验证",
        "ServiceTypes": [
            "KTextEditor/Plugin"
        ]
    }
}
